…
Then you can use `load_org()` to call a selection of years and columns:
```{r, eval = FALSE}
load_org(2019:2021, year, female, wage, orgwgt, .extracts_dir = "C:/data/cps")
```
```{r, echo = FALSE, eval = org_exists}
load_org(2019:2021, year, female, wage, orgwgt)
```
```{r, echo = FALSE, eval = !org_exists}
cat("
# A tibble: 824,963 × 4
    year orgwgt female      wage
   <int>  <dbl> <int+lbl>  <dbl>
 1  2019 11367. 1 [Female] 14   
 2  2019  6541. 1 [Female] 20.9 
 3  2019  6327. 0 [Male]    7.65
 4  2019  6327. 0 [Male]    7.65
 5  2019 11262. 1 [Female] 10   
 6  2019  7867. 1 [Female] 28.8 
 7  2019 11262. 1 [Female] 11   
 8  2019  7943. 0 [Male]   NA   
 9  2019  6092. 1 [Female] NA   
10  2019  7738. 0 [Male]   NA   
# … with 824,953 more rows
…
